%YAML 1.1
%TAG !u! tag:unity3d.com,2011:
--- !u!21 &2100000
Material:
  serializedVersion: 6
  m_ObjectHideFlags: 0
  m_CorrespondingSourceObject: {fileID: 0}
  m_PrefabInstance: {fileID: 0}
  m_PrefabAsset: {fileID: 0}
  m_Name: CreateNormalMaps
  m_Shader: {fileID: 4800000, guid: f1968a755134ae74fb8038ce325d08f3, type: 3}
  m_ShaderKeywords: 
  m_LightmapFlags: 4
  m_EnableInstancingVariants: 0
  m_DoubleSidedGI: 0
  m_CustomRenderQueue: -1
  stringTagMap: {}
  disabledShaderPasses: []
  m_SavedProperties:
    serializedVersion: 3
    m_TexEnvs:
    - Texture2D_1E724885:
        m_Texture: {fileID: 0}
        m_Scale: {x: 1, y: 1}
        m_Offset: {x: 0, y: 0}
    - Texture2D_3F42359B:
        m_Texture: {fileID: 2800000, guid: f53512d44b91e954dae7bf028209df1a, type: 3}
        m_Scale: {x: 1, y: 1}
        m_Offset: {x: 0, y: 0}
    - Texture2D_72DB18D8:
        m_Texture: {fileID: 2800000, guid: 662d72b6ec210cf4cbeec2b4d3cb8b2a, type: 3}
        m_Scale: {x: 1, y: 1}
        m_Offset: {x: 0, y: 0}
    - Texture2D_976489D6:
        m_Texture: {fileID: 2800000, guid: 6ddb2ee225feae6419e458b8d16d469f, type: 3}
        m_Scale: {x: 1, y: 1}
        m_Offset: {x: 0, y: 0}
    - Texture2D_A20463EE:
        m_Texture: {fileID: 2800000, guid: 6ddb2ee225feae6419e458b8d16d469f, type: 3}
        m_Scale: {x: 1, y: 1}
        m_Offset: {x: 0, y: 0}
    - Texture2D_EACF2D48:
        m_Texture: {fileID: 2800000, guid: 6ddb2ee225feae6419e458b8d16d469f, type: 3}
        m_Scale: {x: 1, y: 1}
        m_Offset: {x: 0, y: 0}
    - _Albedo:
        m_Texture: {fileID: 2800000, guid: e2ad9e5be12715d4aac71c6b184d8ca2, type: 3}
        m_Scale: {x: 1, y: 1}
        m_Offset: {x: 0, y: 0}
    - _H:
        m_Texture: {fileID: 2800000, guid: e2ad9e5be12715d4aac71c6b184d8ca2, type: 3}
        m_Scale: {x: 1, y: 1}
        m_Offset: {x: 0, y: 0}
    - _Norm:
        m_Texture: {fileID: 2800000, guid: f53512d44b91e954dae7bf028209df1a, type: 3}
        m_Scale: {x: 1, y: 1}
        m_Offset: {x: 0, y: 0}
    - _ParallaxMapping_6A3C8B2_Height:
        m_Texture: {fileID: 0}
        m_Scale: {x: 1, y: 1}
        m_Offset: {x: 0, y: 0}
    - _Subgraph_73FEF69D_Texture2DE9C0976D:
        m_Texture: {fileID: 0}
        m_Scale: {x: 1, y: 1}
        m_Offset: {x: 0, y: 0}
    - _Subgraph_A170D3C1_Texture2DE9C0976D:
        m_Texture: {fileID: 0}
        m_Scale: {x: 1, y: 1}
        m_Offset: {x: 0, y: 0}
    - _Subgraph_F6833CA1_Texture2DE9C0976D:
        m_Texture: {fileID: 0}
        m_Scale: {x: 1, y: 1}
        m_Offset: {x: 0, y: 0}
    - _texcoord:
        m_Texture: {fileID: 0}
        m_Scale: {x: 1, y: 1}
        m_Offset: {x: 0, y: 0}
    m_Floats:
    - Vector1_58FB8AA: 2.78
    - Vector1_5AAF7A3C: 4.85
    - Vector1_6A06ADFF: 13.71
    - Vector1_773295: 8
    - Vector1_820A9F46: 5
    - Vector1_95EB185: 5
    - Vector1_9A37879C: 0.023
    - Vector1_AAA517B4: 1
    - Vector1_B089E3B4: 12.5
    - Vector1_DB2E7D34: 0
    - Vector1_EF641AE6: 5
    - _Strength: 0.05
    m_Colors: []
